id,name,model_id:id,group_id:id,perm_read,perm_write,perm_create,perm_unlink
access_calendar_agenda_line,access.calendar.agenda.line,model_calendar_agenda_line,base.group_user,1,1,1,1
access_minutes_meeting_line,access.minutes.meeting.line,model_minutes_meeting_line,base.group_user,1,1,1,1
access_calendar_agenda,access.calendar.agenda,model_calendar_agenda,base.group_user,1,1,1,1
