id,name,model_id:id,group_id:id,perm_read,perm_write,perm_create,perm_unlink

access_knowledge_base_manager,knowledge.base.article,model_knowledge_base_article,knowledge_base.group_knowledge_base_manager,1,1,1,1
access_knowledge_base_section_manager,knowledge.base.section,model_knowledge_base_section,knowledge_base.group_knowledge_base_manager,1,1,1,1
access_knowledge_base_tags_manager,knowledge.base.tags,model_knowledge_base_tags,knowledge_base.group_knowledge_base_manager,1,1,1,1
access_knowledge_base_user,knowledge.base.article,model_knowledge_base_article,knowledge_base.group_knowledge_base_user,1,1,0,0
access_knowledge_base_section_user,knowledge.base.section,model_knowledge_base_section,knowledge_base.group_knowledge_base_user,1,0,0,0
access_knowledge_base_tags_user,knowledge.base.tags,model_knowledge_base_tags,knowledge_base.group_knowledge_base_user,1,0,0,0
access_knowledge_base_views_manager,knowledge.base.views,model_knowledge_base_views,knowledge_base.group_knowledge_base_manager,1,1,1,1
access_knowledge_base_views_user,knowledge.base.views,model_knowledge_base_views,knowledge_base.group_knowledge_base_user,1,1,1,0
access_knowledge_base_custom_search_manager,knowledge.base.custom.search,model_knowledge_base_custom_search,knowledge_base.group_knowledge_base_manager,1,1,1,1
access_knowledge_base_custom_search_views_user,knowledge.base.custom.search,model_knowledge_base_custom_search,knowledge_base.group_knowledge_base_user,1,1,1,0
access_knowledge_base_revision_manager,knowledge.base.revision,model_knowledge_base_revision,knowledge_base.group_knowledge_base_manager,1,1,1,1
access_knowledge_base_revision_user,knowledge.base.revision,model_knowledge_base_revision,knowledge_base.group_knowledge_base_user,1,1,1,0